{
    "key": "group_5834a3ad0712e",
    "title": "Carousel",
    "fields": [
        {
            "key": "field_58b4539ef62ca",
            "label": "Settings",
            "name": "",
            "type": "tab",
            "instructions": "",
            "required": 0,
            "conditional_logic": 0,
            "wrapper": {
                "width": "",
                "class": "",
                "id": ""
            },
            "placement": "left",
            "endpoint": 0
        },
        {
            "key": "field_5873d7a537863",
            "label": "Section Header",
            "name": "section_header",
            "type": "clone",
            "instructions": "",
            "required": 0,
            "conditional_logic": 0,
            "wrapper": {
                "width": "",
                "class": "",
                "id": ""
            },
            "clone": [
                "group_5845e0e0070a5"
            ],
            "prefix_label": 0,
            "prefix_name": 0,
            "display": "seamless",
            "layout": "block"
        },
        {
            "key": "field_583cb3486ce1b",
            "label": "Carousel Type",
            "name": "carousel_type",
            "type": "select",
            "instructions": "",
            "required": 0,
            "conditional_logic": 0,
            "wrapper": {
                "width": "40",
                "class": "acf-clear-both",
                "id": ""
            },
            "multiple": 0,
            "allow_null": 0,
            "choices": {
                "custom": "Custom",
                "testimonial": "Testimonial",
                "pageitems": "Page Items"
            },
            "default_value": [],
            "ui": 0,
            "ajax": 0,
            "placeholder": "",
            "return_format": "value"
        },
        {
            "key": "field_587e558751914",
            "label": "IMPORTANT",
            "name": "",
            "type": "message",
            "instructions": "",
            "required": 0,
            "conditional_logic": [
                [
                    {
                        "field": "field_583cb3486ce1b",
                        "operator": "==",
                        "value": "custom"
                    }
                ]
            ],
            "wrapper": {
                "width": "60",
                "class": "",
                "id": ""
            },
            "message": "To create a new instance of a carousel set your <strong>Carousel Type<\/strong> to <i>Custom<\/i> and make sure you've added a unique <strong>module id<\/strong>.\r\n\r\n*Don't forget to create the instance and call your unique <strong>module id<\/strong> in your js file using bx-slider.",
            "new_lines": "br",
            "esc_html": 0
        },
        {
            "key": "field_587e4e45da958",
            "label": "Module ID",
            "name": "module_id",
            "type": "clone",
            "instructions": "",
            "required": 0,
            "conditional_logic": 0,
            "wrapper": {
                "width": "",
                "class": "",
                "id": ""
            },
            "clone": [
                "field_58af1e6b4610b",
                "field_58af1dab4610a"
            ],
            "display": "seamless",
            "layout": "block",
            "prefix_label": 0,
            "prefix_name": 0
        },
        {
            "key": "field_586c016155755",
            "label": "Carousel Width",
            "name": "carousel_width",
            "type": "select",
            "instructions": "",
            "required": 0,
            "conditional_logic": [
                [
                    {
                        "field": "field_583cb3486ce1b",
                        "operator": "==",
                        "value": "testimonial"
                    }
                ]
            ],
            "wrapper": {
                "width": "40",
                "class": "acf-clear-both",
                "id": ""
            },
            "multiple": 0,
            "allow_null": 0,
            "choices": {
                "4": "4",
                "5": "5",
                "6": "6",
                "7": "7",
                "8": "8",
                "9": "9",
                "10": "10",
                "11": "11",
                "12": "12"
            },
            "default_value": [
                8
            ],
            "ui": 0,
            "ajax": 0,
            "placeholder": "",
            "return_format": "value"
        },
        {
            "key": "field_587e4ebe15ae7",
            "label": "Carousel",
            "name": "",
            "type": "tab",
            "instructions": "",
            "required": 0,
            "conditional_logic": 0,
            "wrapper": {
                "width": "",
                "class": "",
                "id": ""
            },
            "placement": "left",
            "endpoint": 0
        },
        {
            "key": "field_5834a88568c37",
            "label": "Carousel Repeater",
            "name": "carousel_repeater",
            "type": "repeater",
            "instructions": "",
            "required": 0,
            "conditional_logic": [
                [
                    {
                        "field": "field_583cb3486ce1b",
                        "operator": "==",
                        "value": "custom"
                    }
                ]
            ],
            "wrapper": {
                "width": "",
                "class": "carousel",
                "id": ""
            },
            "min": 0,
            "max": 0,
            "layout": "block",
            "button_label": "Add Item",
            "collapsed": "",
            "sub_fields": [
                {
                    "key": "field_5834a89e68c38",
                    "label": "Custom Header",
                    "name": "custom_header",
                    "type": "text",
                    "instructions": "",
                    "required": 0,
                    "conditional_logic": [
                        [
                            {
                                "field": "field_583cb3486ce1b",
                                "operator": "==",
                                "value": "custom"
                            }
                        ]
                    ],
                    "wrapper": {
                        "width": "",
                        "class": "",
                        "id": ""
                    },
                    "default_value": "",
                    "maxlength": "",
                    "placeholder": "",
                    "prepend": "",
                    "append": ""
                },
                {
                    "key": "field_5834ab9668c3c",
                    "label": "Custom Subhead",
                    "name": "custom_subhead",
                    "type": "text",
                    "instructions": "",
                    "required": 0,
                    "conditional_logic": [
                        [
                            {
                                "field": "field_583cb3486ce1b",
                                "operator": "==",
                                "value": "custom"
                            }
                        ]
                    ],
                    "wrapper": {
                        "width": "35",
                        "class": "",
                        "id": ""
                    },
                    "default_value": "",
                    "maxlength": "",
                    "placeholder": "",
                    "prepend": "",
                    "append": ""
                },
                {
                    "key": "field_5834ab6f68c3b",
                    "label": "Custom Paragraph",
                    "name": "custom_paragraph",
                    "type": "textarea",
                    "instructions": "",
                    "required": 0,
                    "conditional_logic": [
                        [
                            {
                                "field": "field_583cb3486ce1b",
                                "operator": "==",
                                "value": "custom"
                            }
                        ]
                    ],
                    "wrapper": {
                        "width": "65",
                        "class": "",
                        "id": ""
                    },
                    "default_value": "",
                    "new_lines": "",
                    "maxlength": "",
                    "placeholder": "",
                    "rows": 4
                },
                {
                    "key": "field_584899948c142",
                    "label": "Add Button",
                    "name": "add_button",
                    "type": "true_false",
                    "instructions": "",
                    "required": 0,
                    "conditional_logic": [
                        [
                            {
                                "field": "field_583cb3486ce1b",
                                "operator": "==",
                                "value": "custom"
                            }
                        ]
                    ],
                    "wrapper": {
                        "width": "15",
                        "class": "",
                        "id": ""
                    },
                    "default_value": 0,
                    "message": "",
                    "ui": 0,
                    "ui_on_text": "",
                    "ui_off_text": ""
                },
                {
                    "key": "field_584899b18c143",
                    "label": "Button",
                    "name": "button",
                    "type": "clone",
                    "instructions": "",
                    "required": 0,
                    "conditional_logic": [
                        [
                            {
                                "field": "field_583cb3486ce1b",
                                "operator": "==",
                                "value": "custom"
                            },
                            {
                                "field": "field_584899948c142",
                                "operator": "==",
                                "value": "1"
                            }
                        ]
                    ],
                    "wrapper": {
                        "width": "",
                        "class": "",
                        "id": ""
                    },
                    "clone": [
                        "group_582a33c4cd728"
                    ],
                    "prefix_label": 0,
                    "prefix_name": 0,
                    "display": "group",
                    "layout": "table"
                }
            ]
        },
        {
            "key": "field_583d9cb294546",
            "label": "Testimonials Select",
            "name": "testimonial_select",
            "type": "relationship",
            "instructions": "",
            "required": 0,
            "conditional_logic": [
                [
                    {
                        "field": "field_583cb3486ce1b",
                        "operator": "==",
                        "value": "testimonial"
                    }
                ]
            ],
            "wrapper": {
                "width": "",
                "class": "",
                "id": ""
            },
            "post_type": [
                "testimonial_post"
            ],
            "taxonomy": [],
            "min": "",
            "max": "",
            "filters": [
                "search",
                "post_type",
                "taxonomy"
            ],
            "elements": "",
            "return_format": "object"
        },
        {
            "key": "field_5849810706cdb",
            "label": "Page Items Select",
            "name": "pageitems_select",
            "type": "relationship",
            "instructions": "",
            "required": 0,
            "conditional_logic": [
                [
                    {
                        "field": "field_583cb3486ce1b",
                        "operator": "==",
                        "value": "pageitems"
                    }
                ]
            ],
            "wrapper": {
                "width": "",
                "class": "",
                "id": ""
            },
            "post_type": [
                "page"
            ],
            "taxonomy": [],
            "min": "",
            "max": "",
            "filters": [
                "search",
                "post_type"
            ],
            "elements": "",
            "return_format": "object"
        }
    ],
    "location": [
        [
            {
                "param": "post_status",
                "operator": "==",
                "value": "acf-disabled"
            }
        ],
        [
            {
                "param": "page_template",
                "operator": "==",
                "value": "template-formatting.php"
            }
        ]
    ],
    "menu_order": 0,
    "position": "normal",
    "style": "default",
    "label_placement": "top",
    "instruction_placement": "label",
    "hide_on_screen": "",
    "active": 1,
    "description": "",
    "modified": 1488230567
}