{
    "key": "group_57d845e689cc6",
    "title": "Program Page Enhancements",
    "fields": [
        {
            "key": "field_57d065640669e",
            "label": "homepage blurb",
            "name": "homepage_blurb",
            "type": "textarea",
            "instructions": "Please put a blurb here about the program. This is for the home page slider.",
            "required": 1,
            "conditional_logic": 0,
            "wrapper": {
                "width": "",
                "class": "",
                "id": ""
            },
            "default_value": "",
            "placeholder": "",
            "maxlength": 350,
            "rows": "",
            "new_lines": ""
        }
    ],
    "location": [
        [
            {
                "param": "page_parent",
                "operator": "==",
                "value": "2146"
            }
        ],
        [
            {
                "param": "page_parent",
                "operator": "==",
                "value": "2146"
            }
        ],
        [
            {
                "param": "page_parent",
                "operator": "==",
                "value": "2146"
            }
        ]
    ],
    "menu_order": 0,
    "position": "normal",
    "style": "seamless",
    "label_placement": "top",
    "instruction_placement": "label",
    "hide_on_screen": [
        "excerpt"
    ],
    "active": 1,
    "description": "",
    "modified": 1489606488
}