{
    "key": "group_582dec0276486",
    "title": "Testimonial Card",
    "fields": [
        {
            "return_format": "url",
            "preview_size": "medium",
            "library": "all",
            "min_width": "",
            "min_height": "",
            "min_size": "",
            "max_width": "",
            "max_height": "",
            "max_size": "",
            "mime_types": "",
            "key": "field_582dec027aedd",
            "label": "Testimonial Image",
            "name": "card_image",
            "type": "image",
            "instructions": "",
            "required": 0,
            "conditional_logic": 0,
            "wrapper": {
                "width": "",
                "class": "",
                "id": ""
            }
        },
        {
            "default_value": "\u201cEveryone who works here is here for a reason. Everyone cares.\u201d",
            "new_lines": "",
            "maxlength": "",
            "placeholder": "",
            "rows": 6,
            "key": "field_582decae7ad52",
            "label": "Quote",
            "name": "testimonial_quote",
            "type": "textarea",
            "instructions": "",
            "required": 0,
            "conditional_logic": 0,
            "wrapper": {
                "width": "",
                "class": "",
                "id": ""
            }
        },
        {
            "clone": [
                "field_582cd75eedc4b"
            ],
            "prefix_label": 0,
            "prefix_name": 0,
            "display": "seamless",
            "layout": "block",
            "key": "field_582dec307ad51",
            "label": "Testimonial Subhead",
            "name": "card_secondary_text",
            "type": "clone",
            "instructions": "",
            "required": 0,
            "conditional_logic": 0,
            "wrapper": {
                "width": "",
                "class": "",
                "id": ""
            }
        }
    ],
    "location": [
        [
            {
                "param": "post_status",
                "operator": "==",
                "value": "acf-disabled"
            }
        ]
    ],
    "menu_order": 0,
    "position": "normal",
    "style": "default",
    "label_placement": "top",
    "instruction_placement": "label",
    "hide_on_screen": "",
    "active": 1,
    "description": "",
    "modified": 1483550858
}